depth=			128;
width=			128;
address_radix=	hex;
data_radix=		hex;
content
begin

00000000:00000000000000000000000000000000;%" "%
00000001:00000000080808080808080008080000;%"!"%
00000002:00002222222200000000000000000000;%"""%
00000003:000000001212127E24247E4848480000;%"#"%
00000004:00000000083E4948380E09493E080000;%"$"%
00000005:00000000314A4A340808162929460000;%"%"%
00000006:000000001C2222141829454246390000;%"&"%
00000007:00000808080800000000000000000000;%"'"%
00000008:00000004080810101010101008080400;%"("%
00000009:00000020101008080808080810102000;%")"%
0000000A:00000000000008492A1C2A4908000000;%"*"%
0000000B:0000000000000808087F080808000000;%"+"%
0000000C:00000000000000000000000018080810;%","%
0000000D:0000000000000000003C000000000000;%"-"%
0000000E:00000000000000000000000018180000;%"."%
0000000F:00000000020204080810102040400000;%"/"%
00000010:00000000182442424242424224180000;%"0"%
00000011:000000000818280808080808083E0000;%"1"%
00000012:000000003C4242020C102040407E0000;%"2"%
00000013:000000003C4242021C020242423C0000;%"3"%
00000014:00000000040C142444447E0404040000;%"4"%
00000015:000000007E4040407C020202423C0000;%"5"%
00000016:000000001C2040407C424242423C0000;%"6"%
00000017:000000007E0202040404080808080000;%"7"%
00000018:000000003C4242423C424242423C0000;%"8"%
00000019:000000003C4242423E02020204380000;%"9"%
0000001A:00000000000018180000001818000000;%<!>%
0000001B:00000000000018180000001808081000;%";"%
0000001C:00000000000204081020100804020000;%"<"%
0000001D:000000000000007E0000007E00000000;%"="%
0000001E:00000000004020100804081020400000;%">"%
0000001F:000000003C4242020408080008080000;%"?"%
00000020:000000001C224A565252524E201E0000;%"@"%
00000021:0000000018242442427E424242420000;%"A"%
00000022:000000007C4242427C424242427C0000;%"B"%
00000023:000000003C42424040404042423C0000;%"C"%
00000024:00000000784442424242424244780000;%"D"%
00000025:000000007E4040407C404040407E0000;%"E"%
00000026:000000007E4040407C40404040400000;%"F"%
00000027:000000003C424240404E4242463A0000;%"G"%
00000028:00000000424242427E42424242420000;%"H"%
00000029:000000003E08080808080808083E0000;%"I"%
0000002A:000000001F0404040404044444380000;%"J"%
0000002B:00000000424448506060504844420000;%"K"%
0000002C:000000004040404040404040407E0000;%"L"%
0000002D:00000000424266665A5A424242420000;%"M"%
0000002E:0000000042626252524A4A4646420000;%"N"%
0000002F:000000003C42424242424242423C0000;%"O"%
00000030:000000007C4242427C40404040400000;%"P"%
00000031:000000003C4242424242425A663C0300;%"Q"%
00000032:000000007C4242427C48444442420000;%"R"%
00000033:000000003C424240300C0242423C0000;%"S"%
00000034:000000007F0808080808080808080000;%"T"%
00000035:000000004242424242424242423C0000;%"U"%
00000036:00000000414141222222141408080000;%"V"%
00000037:00000000424242425A5A666642420000;%"W"%
00000038:00000000424224241818242442420000;%"X"%
00000039:00000000414122221408080808080000;%"Y"%
0000003A:000000007E02020408102040407E0000;%"Z"%
0000003B:0000000E080808080808080808080E00;%"["%
0000003C:00000000404020101008080402020000;%"\"%
0000003D:00000070101010101010101010107000;%"]"%
0000003E:00001824420000000000000000000000;%"^"%
0000003F:00000000000000000000000000007F00;%"_"%
00000040:00201008000000000000000000000000;%"`"%
00000041:0000000000003C42023E4242463A0000;%"a"%
00000042:0000004040405C6242424242625C0000;%"b"%
00000043:0000000000003C4240404040423C0000;%"c"%
00000044:0000000202023A4642424242463A0000;%"d"%
00000045:0000000000003C42427E4040423C0000;%"e"%
00000046:0000000C1010107C1010101010100000;%"f"%
00000047:0000000000023A44444438203C42423C;%"g"%
00000048:0000004040405C624242424242420000;%"h"%
00000049:000000080800180808080808083E0000;%"i"%
0000004A:0000000404000C040404040404044830;%"j"%
0000004B:00000040404044485060504844420000;%"k"%
0000004C:000000180808080808080808083E0000;%"l"%
0000004D:00000000000076494949494949490000;%"m"%
0000004E:0000000000005C624242424242420000;%"n"%
0000004F:0000000000003C4242424242423C0000;%"o"%
00000050:0000000000005C6242424242625C4040;%"p"%
00000051:0000000000003A4642424242463A0202;%"q"%
00000052:0000000000005C624240404040400000;%"r"%
00000053:0000000000003C4240300C02423C0000;%"s"%
00000054:000000001010107C10101010100C0000;%"t"%
00000055:000000000000424242424242463A0000;%"u"%
00000056:00000000000042424224242418180000;%"v"%
00000057:00000000000041494949494949360000;%"w"%
00000058:00000000000042422418182442420000;%"x"%
00000059:0000000000004242424242261A02023C;%"y"%
0000005A:0000000000007E0204081020407E0000;%"z"%
0000005B:0000000C101008081010080810100C00;%"{"%
0000005C:00000808080808080808080808080808;%"|"%
0000005D:00000030080810100808101008083000;%"}"%
0000005E:00000031494600000000000000000000;%"~"%
0000005F:0000000000424222122C484442420000;%"א"--c128%
00000060:00000000007C040404040404047F0000;%"ב"--c129%
00000061:000000000030080808040C1422420000;%"ג"--c130%
00000062:00000000007E04040404040404040000;%"ד"--c131%
00000063:00000000007E02022222222222220000;%"ה"--c132%
00000064:00000000003808080808080808080000;%"ו"--c133%
00000065:0000000000300C0A0808080808080000;%"ז"--c134%
00000066:00000000007E22222222222222220000;%"ח"--c135%
00000067:0000000000464A4242424242427E0000;%"ט"--c136%
00000068:00000000003808080800000000000000;%"י"--c137%
00000069:00000000007E02020202020202020202;%"ך"--c138%
0000006A:00000000007E020202020202027C0000;%"כ"--c139%
0000006B:00000020203E02020202040408300000;%"ל"--c140%
0000006C:0000000000FE222222222222223E0000;%"ם"--c141%
0000006D:00000000004E31214141414141470000;%"מ"--c142%
0000006E:00000000003808080808080808080808;%"ן"--c143%
0000006F:00000000001C040404040404043C0000;%"נ"--c144%
00000070:00000000007E42424242424244780000;%"ס"--c145%
00000071:00000000001212121212121212FE0000;%"ע"--c146%
00000072:00000000007E42424272020202020202;%"ף"--c147%
00000073:00000000007E424242720202027E0000;%"פ"--c148%
00000074:00000000002222242830202020202020;%"ץ"--c149%
00000075:000000000042422418080402027E0000;%"צ"--c150%
00000076:00000000007E22222424282020202020;%"ק"--c151%
00000077:00000000007E02020202020202020000;%"ר"--c152%
00000078:000000000049494949494949497F0000;%"ש"--c153%
00000079:00000000003E22222222222222620000;%"ת"--c154%
0000007A:00103854921010101010101010101000;%"ᛏ"--si%
0000007B:00000000001838787878381800000000;%"◖"--dc1%
0000007C:00000000000C0E0F0F0F0E0C00000000;%"◗"--dc2%
0000007D:00000040404E7E72424E7E7202020000;%"♮"--dc3%
0000007E:00000000000010207E20100000000000;%"˿"--del%
0000007F:000000040404040404040404047C0000;%"˩"--nul%

end;
